<svg xmlns="http://www.w3.org/2000/svg" width="673.653" height="144" viewBox="0 0 673.653 144">
  <g id="Group_3552" data-name="Group 3552" transform="translate(9097.653 -11531)">
    <g id="valknut" transform="translate(-9097.653 11562.563)">
      <path id="Path_8112" data-name="Path 8112" d="M249.6,241.309c-3.085-6.825-3.089-7.016-8.015-13.841-4.888,6.819-4.891,7-7.958,13.838C241.992,242.149,242.151,242.057,249.6,241.309Zm0,0" transform="translate(-185.918 -200.368)" fill="#fff"/>
      <path id="Path_8113" data-name="Path 8113" d="M172.765,183.435a55.387,55.387,0,0,0-64.507-30.067l-8.441,2.26,2.26,8.443A55.458,55.458,0,0,0,123.4,194.812l2.177,1.551,10.143-14.233-2.178-1.553a37.842,37.842,0,0,1-10.639-11.622,37.8,37.8,0,0,1,20.183,6.057,55,55,0,0,0-9.711,37.245l5.323-.524a49.657,49.657,0,0,1,10.285-35.7l1.682-2.153-2.189-1.635a43.159,43.159,0,0,0-30.131-8.433l-3.713.368,1.54,3.4a43.307,43.307,0,0,0,12.137,15.732l-3.941,5.533a50.107,50.107,0,0,1-17.127-26.159l-.877-3.276,3.276-.878a50.023,50.023,0,0,1,59.288,29.5l1.022,2.538,2.514-1.081a43.047,43.047,0,0,0,22.374-21.9l1.531-3.4-3.707-.363a43.3,43.3,0,0,0-19.6,2.607l-2.806-6.188a50.135,50.135,0,0,1,31.107-1.709l3.276.878-.877,3.276a50.058,50.058,0,0,1-55.173,36.589l-2.7-.377-.322,2.71a43.144,43.144,0,0,0,7.764,30.316l2.174,3.032,2.173-3.033a43.307,43.307,0,0,0,7.555-18.379l6.763.648A50.111,50.111,0,0,1,157.9,242.106l-2.4,2.4-2.4-2.4a49.824,49.824,0,0,1-13.282-23.672l-5.2,1.24a55.167,55.167,0,0,0,14.7,26.213l6.18,6.179,6.179-6.179a55.453,55.453,0,0,0,15.96-33.84l.255-2.663-17.4-1.666-.255,2.663a37.826,37.826,0,0,1-4.746,15.026,37.8,37.8,0,0,1-4.847-20.516,55.426,55.426,0,0,0,58.276-40.82l2.262-8.443-8.441-2.26a55.461,55.461,0,0,0-37.166,3.042l-2.436,1.1,7.218,15.919,2.436-1.1a37.833,37.833,0,0,1,15.318-3.365,37.691,37.691,0,0,1-15.352,14.472Zm0,0" transform="translate(-99.816 -151.458)" fill="#fff"/>
    </g>
    <text id="plicaiconic" transform="translate(-8948 11651)" fill="#fff" font-size="120" font-family="Bison-Bold, Bison" font-weight="700" letter-spacing="0.08em"><tspan x="0" y="0">plicaiconic</tspan></text>
  </g>
</svg>
